<svg width="66px" height="51px" viewBox="0 0 66 51" version="1.1" xmlns="http://www.w3.org/2000/svg" xmlns:xlink="http://www.w3.org/1999/xlink">
        <g class="Logo_Reversed" fill="#FFF5E4">
            <path d="M32.53,39.15 C32.5300365,39.5603395 32.2003031,39.8945288 31.79,39.9 L26.4,39.9 C26.1368172,39.9111955 25.8761088,39.8451494 25.65,39.71 C25.4050273,39.5506956 25.1886624,39.3512342 25.01,39.12 L18.6,31.05 L18.6,39 C18.6,39.508102 18.188102,39.92 17.68,39.92 L13.25,39.92 C12.741898,39.92 12.33,39.508102 12.33,39 L12.33,17.09 C12.329174,16.8458891 12.4264601,16.611682 12.6,16.44 C12.770363,16.2645096 13.005438,16.166863 13.25,16.17 L17.68,16.17 C17.924562,16.166863 18.159637,16.2645096 18.33,16.44 C18.5035399,16.611682 18.600826,16.8458891 18.6,17.09 L18.6,24.24 L24.6,16.92 C24.7540093,16.7157614 24.9357614,16.5340093 25.14,16.38 C25.3797815,16.2233305 25.6643027,16.1495657 25.95,16.17 L31.24,16.17 C31.6542136,16.17 31.99,16.5057864 31.99,16.92 C31.9887353,17.0512053 31.9506193,17.1794137 31.88,17.29 L23.48,27.53 L32.48,38.78 C32.5355925,38.8948771 32.5531075,39.0244878 32.53,39.15 Z" class="Shape" fill-rule="nonzero"></path>
            <path d="M50,16.87 C51.4670955,17.5087175 52.7373826,18.5270182 53.68,19.82 C54.5852168,21.1236896 55.047926,22.6835804 55,24.27 C55.0081516,25.038233 54.8864385,25.8023212 54.64,26.53 C54.437658,27.142182 54.1729338,27.7319472 53.85,28.29 C53.55,28.78 53.11,29.45 52.52,30.29 L46.1,39.22 C46.0490807,39.3126137 45.9887628,39.3997395 45.92,39.48 C45.8117168,39.6013093 45.6831277,39.702827 45.54,39.78 C45.3896062,39.8612189 45.2209046,39.9025336 45.05,39.9 L39.66,39.9 C39.4711297,39.9079517 39.2895565,39.826429 39.17,39.68 C38.910703,39.3970929 38.910703,38.9629071 39.17,38.68 L43.51,32.58 C42.0420666,32.3956206 40.6249743,31.9232565 39.34,31.19 C38.1179645,30.4918665 37.0874104,29.5025346 36.34,28.31 C34.7348051,25.6694821 34.8327401,22.3318543 36.59,19.79 C37.5357513,18.5000159 38.8051484,17.4824285 40.27,16.84 C43.3651467,15.4534669 46.9048533,15.4534669 50,16.84 L50,16.87 Z M42.53,22.1 C41.83839,22.6066655 41.429717,23.4126586 41.429717,24.27 C41.429717,25.1273414 41.83839,25.9333345 42.53,26.44 C44.0485092,27.5733528 46.1314908,27.5733528 47.65,26.44 C48.34161,25.9333345 48.750283,25.1273414 48.750283,24.27 C48.750283,23.4126586 48.34161,22.6066655 47.65,22.1 C46.1271839,20.9796935 44.0528161,20.9796935 42.53,22.1 Z" class="Shape" fill-rule="nonzero"></path>
            <path d="M16.88,49.73 C16.8801981,49.8458281 16.8289006,49.9557513 16.74,50.03 C16.6490963,50.1114197 16.5320107,50.1575444 16.41,50.16 C16.3317433,50.1566645 16.2557955,50.1324993 16.19,50.09 C16.1134212,50.0432077 16.053844,49.9731168 16.02,49.89 L15.69,49.15 L13.55,49.15 L13.22,49.89 C13.1893925,49.9720421 13.1333224,50.0421298 13.06,50.09 C12.9905127,50.1324663 12.9113634,50.1565552 12.83,50.16 C12.7044646,50.1476369 12.5874546,50.0909048 12.5,50 C12.4110994,49.9257513 12.3598019,49.8158281 12.36,49.7 C12.3597922,49.6302147 12.3769765,49.5614775 12.41,49.5 L14.11,46 C14.1488005,45.8997858 14.2237191,45.8177321 14.32,45.77 C14.4083045,45.7191391 14.5081082,45.6916071 14.61,45.69 C14.7152263,45.6903449 14.818574,45.7179042 14.91,45.77 C15.0047748,45.8228235 15.0814388,45.9029722 15.13,46 L16.83,49.57 C16.8543265,49.6206308 16.8711691,49.6745269 16.88,49.73 Z M13.88,48.4 L15.35,48.4 L14.61,46.77 L13.88,48.4 Z" class="Shape" fill-rule="nonzero"></path>
            <path d="M22,45.79 C22.0887909,45.8843422 22.1356756,46.0105702 22.13,46.14 L22.13,49.68 C22.127875,49.7991024 22.0815392,49.9131596 22,50 C21.9108469,50.0994734 21.7835785,50.1563123 21.65,50.1563123 C21.5164215,50.1563123 21.3891531,50.0994734 21.3,50 L19.19,47.3 L19.19,49.68 C19.1952226,49.8075748 19.1524021,49.932468 19.07,50.03 C18.9841368,50.1203564 18.8646421,50.1710511 18.74,50.17 C18.6121324,50.1726279 18.4889431,50.1219029 18.4,50.03 C18.3175979,49.932468 18.2747774,49.8075748 18.28,49.68 L18.28,46.14 C18.2747774,46.0124252 18.3175979,45.887532 18.4,45.79 C18.4899673,45.7007172 18.613416,45.6535162 18.74,45.66 C18.8794402,45.6484106 19.0151631,45.7087319 19.1,45.82 L21.21,48.51 L21.21,46.14 C21.2043244,46.0105702 21.2512091,45.8843422 21.34,45.79 C21.4223191,45.7016589 21.5393943,45.6540971 21.66,45.66 C21.7867851,45.6522247 21.9107445,45.6996209 22,45.79 Z" class="Shape" fill-rule="nonzero"></path>
            <path d="M24,50 C23.9143606,49.9083453 23.870864,49.7851049 23.88,49.66 L23.88,46.15 C23.870864,46.0248951 23.9143606,45.9016547 24,45.81 C24.0928738,45.7263908 24.2152205,45.6832096 24.34,45.69 L25.61,45.69 C26.0409997,45.6806709 26.4684673,45.7695841 26.86,45.95 C27.1988446,46.1192279 27.4779509,46.3878677 27.66,46.72 C27.849751,47.087245 27.942681,47.4968251 27.93,47.91 C27.9413699,48.3230473 27.8485133,48.7323043 27.66,49.1 C27.4779509,49.4321323 27.1988446,49.7007721 26.86,49.87 C26.4688026,50.051431 26.0410969,50.1403938 25.61,50.13 L24.34,50.13 C24.2138058,50.1340945 24.0912711,50.087243 24,50 Z M25.54,49.33 C26.3297672,49.33 26.97,48.6897672 26.97,47.9 C26.97,47.1102328 26.3297672,46.47 25.54,46.47 L24.87,46.47 L24.87,49.33 L25.54,49.33 Z" class="Shape" fill-rule="nonzero"></path>
            <path d="M35.45,49.71 C35.4479244,49.8281833 35.3972907,49.9403009 35.31,50.02 C35.2267674,50.1008901 35.1160333,50.147327 35,50.15 C34.8631604,50.1481807 34.7330471,50.0903525 34.64,49.99 L32.64,48.08 L32.64,49.68 C32.6484545,49.812834 32.6013726,49.9432147 32.51,50.04 C32.3018028,50.2147304 31.9981972,50.2147304 31.79,50.04 C31.6986274,49.9432147 31.6515455,49.812834 31.66,49.68 L31.66,46.14 C31.6543244,46.0105702 31.7012091,45.8843422 31.79,45.79 C31.9981972,45.6152696 32.3018028,45.6152696 32.51,45.79 C32.5987909,45.8843422 32.6456756,46.0105702 32.64,46.14 L32.64,47.65 L34.54,45.8 C34.6234661,45.7121515 34.7388343,45.6616779 34.86,45.66 C34.9732163,45.6621418 35.081018,45.7088559 35.16,45.79 C35.2472907,45.8696991 35.2979244,45.9818167 35.3,46.1 C35.2972759,46.2258943 35.2430607,46.3451678 35.15,46.43 L33.65,47.83 L35.25,49.39 C35.3603309,49.4622122 35.4334374,49.5791826 35.45,49.71 Z" class="Shape" fill-rule="nonzero"></path>
            <path d="M37,50 C36.9086274,49.9032147 36.8615455,49.772834 36.87,49.64 L36.87,46.14 C36.8643244,46.0105702 36.9112091,45.8843422 37,45.79 C37.2081972,45.6152696 37.5118028,45.6152696 37.72,45.79 C37.8087909,45.8843422 37.8556756,46.0105702 37.85,46.14 L37.85,49.68 C37.8584545,49.812834 37.8113726,49.9432147 37.72,50.04 C37.5022043,50.203523 37.1983421,50.1866418 37,50 Z" class="Shape" fill-rule="nonzero"></path>
            <path d="M40.74,50 C40.6475578,49.9073059 40.5969861,49.7808765 40.6,49.65 L40.6,46.49 L39.6,46.49 C39.29,46.49 39.14,46.35 39.14,46.09 C39.14,45.83 39.29,45.69 39.6,45.69 L42.6,45.69 C42.91,45.69 43.06,45.82 43.06,46.09 C43.06,46.36 42.91,46.49 42.6,46.49 L41.6,46.49 L41.6,49.68 C41.6056756,49.8094298 41.5587909,49.9356578 41.47,50.03 C41.3738785,50.1224458 41.2430091,50.1697042 41.11,50.16 C40.9691626,50.1635493 40.8338767,50.1050473 40.74,50 Z" class="Shape" fill-rule="nonzero"></path>
            <path d="M45.75,50 C45.6612091,49.9056578 45.6143244,49.7794298 45.62,49.65 L45.62,46.49 L44.62,46.49 C44.31,46.49 44.15,46.35 44.15,46.09 C44.15,45.83 44.31,45.69 44.62,45.69 L47.62,45.69 C47.93,45.69 48.09,45.82 48.09,46.09 C48.09,46.36 47.93,46.49 47.62,46.49 L46.62,46.49 L46.62,49.68 C46.6256756,49.8094298 46.5787909,49.9356578 46.49,50.03 C46.2818028,50.2047304 45.9781972,50.2047304 45.77,50.03 L45.75,50 Z" class="Shape" fill-rule="nonzero"></path>
            <path d="M52.68,45.65 C52.8002426,45.6557742 52.914152,45.7056096 53,45.79 C53.0872907,45.8696991 53.1379244,45.9818167 53.14,46.1 C53.1370076,46.208131 53.0942878,46.3113706 53.02,46.39 L51.64,48 L51.64,49.65 C51.6484169,49.7847292 51.5972289,49.9163553 51.5,50.01 C51.4056578,50.0987909 51.2794298,50.1456756 51.15,50.14 C51.0178363,50.1440127 50.8891076,50.0975274 50.79,50.01 C50.6952492,49.9153275 50.6475968,49.7833671 50.66,49.65 L50.66,48 L49.29,46.36 C49.2121635,46.2837175 49.168823,46.1789778 49.17,46.07 C49.1682883,45.953075 49.2154007,45.8407301 49.3,45.76 C49.3834661,45.6721515 49.4988343,45.6216779 49.62,45.62 C49.7448436,45.6243203 49.8616376,45.6827173 49.94,45.78 L51.15,47.25 L52.35,45.78 C52.4368892,45.6922869 52.5566328,45.6451152 52.68,45.65 Z" class="Shape" fill-rule="nonzero"></path>
            <path d="M16,8.39 C16.055775,8.50702756 16.055775,8.64297244 16,8.76 C15.9650248,8.88647333 15.8777011,8.99198944 15.76,9.05 C15.6221634,9.10613764 15.4678366,9.10613764 15.33,9.05 L12.44,8.16 L13.25,9.73 C13.3242284,9.85699534 13.3423394,10.0091275 13.3,10.15 C13.2518328,10.2898817 13.1463636,10.4026247 13.01,10.46 C12.884461,10.5376067 12.7322474,10.5593515 12.59,10.52 C12.4537333,10.4659797 12.3429748,10.3623668 12.28,10.23 L10.49,6.75 C10.4371567,6.61844141 10.4371567,6.47155859 10.49,6.34 C10.5381672,6.20011829 10.6436364,6.08737534 10.78,6.03 C10.9083474,5.95729043 11.0626213,5.94627087 11.2,6 C11.3379277,6.04590072 11.4503456,6.14743948 11.51,6.28 L12.27,7.76 L13.21,5 C13.2424118,4.86978019 13.3300711,4.76020614 13.45,4.7 C13.5681459,4.64941203 13.7018541,4.64941203 13.82,4.7 C13.9433334,4.73632635 14.0452383,4.82367334 14.1,4.94 C14.1551923,5.06414193 14.1551923,5.20585807 14.1,5.33 L13.33,7.48 L15.71,8.2 C15.8277473,8.22308667 15.9318135,8.29126791 16,8.39 Z" class="Shape" fill-rule="nonzero"></path>
            <path d="M17.62,8.17 C17.4857458,8.10463979 17.3818713,7.99001968 17.33,7.85 L15.9,4.21 C15.8265119,4.00365273 15.8800781,3.77340169 16.0371008,3.62068106 C16.1941234,3.46796043 16.4257733,3.42080949 16.63,3.5 C16.7611407,3.56158715 16.8620324,3.67328875 16.91,3.81 L18.35,7.45 C18.4050947,7.58803898 18.4050947,7.74196102 18.35,7.88 C18.2058765,8.14285002 17.8943383,8.26493932 17.61,8.17 L17.62,8.17 Z" class="Shape" fill-rule="nonzero"></path>
            <path d="M23,1.54 C23.1145736,1.62448494 23.1987606,1.74374978 23.24,1.88 L24.24,5.65 C24.296675,5.78426418 24.296675,5.93573582 24.24,6.07 C24.1743973,6.19366304 24.0570853,6.28164703 23.92,6.31 C23.7721683,6.36142206 23.608666,6.33912629 23.48,6.25 L20.48,3.97 L21.18,6.51 C21.2315174,6.64526064 21.2315174,6.79473936 21.18,6.93 C21.0328149,7.17379823 20.7192769,7.25770276 20.47,7.12 C20.3477866,7.04328448 20.2613603,6.92084715 20.23,6.78 L19.07,3 C19.0149979,2.8688673 19.0149979,2.7211327 19.07,2.59 C19.1356027,2.46633696 19.2529147,2.37835297 19.39,2.35 C19.5363948,2.30482732 19.6954918,2.33072683 19.82,2.42 L22.82,4.67 L22.2,2.15 C22.143848,2.01910111 22.143848,1.87089889 22.2,1.74 C22.2612226,1.6168261 22.3754174,1.52841721 22.51,1.5 C22.6690615,1.42656759 22.854954,1.44174249 23,1.54 Z" class="Shape" fill-rule="nonzero"></path>
            <path d="M29.78,2.72 C29.8732052,2.78280461 29.9293517,2.88761132 29.93,3 L30.1,4.35 C30.119471,4.49267208 30.119471,4.63732792 30.1,4.78 C30.0868695,4.86093506 30.0523447,4.93688956 30,5 C29.9138149,5.08780133 29.8073533,5.15305201 29.69,5.19 C29.4968257,5.27815857 29.295988,5.34845177 29.09,5.4 C28.8749354,5.46543354 28.6538142,5.50898771 28.43,5.53 C27.9534756,5.62271269 27.4611401,5.59172654 27,5.44 C26.593703,5.30062408 26.2430725,5.03414491 26,4.68 C25.7386537,4.29199084 25.5772046,3.84542962 25.53,3.38 C25.4794551,2.91138283 25.5446968,2.43752214 25.72,2 C25.8597997,1.59671681 26.121992,1.24712697 26.47,1 C26.8463278,0.737597653 27.2835139,0.575804374 27.74,0.53 C28.3113595,0.437154722 28.8972793,0.54304383 29.4,0.83 C29.4644161,0.866682727 29.519242,0.918081989 29.56,0.98 C29.6008882,1.03916181 29.62507,1.10825283 29.63,1.18 C29.6421329,1.29025488 29.6212502,1.40162946 29.57,1.5 C29.5198928,1.58391143 29.4360995,1.64220248 29.34,1.66 L29.18,1.66 L29,1.63 C28.8204267,1.54741962 28.63275,1.48374361 28.44,1.44 C28.2575415,1.41467138 28.0724585,1.41467138 27.89,1.44 C26.95,1.56 26.55,2.16 26.69,3.26 C26.7090392,3.71346454 26.8941092,4.14410806 27.21,4.47 C27.536167,4.73042009 27.9609497,4.83295385 28.37,4.75 C28.636933,4.71409846 28.8987261,4.64697203 29.15,4.55 L29,3.46 L28.36,3.54 C28.2496048,3.5638381 28.134261,3.54221114 28.04,3.48 C27.9545303,3.41930596 27.8997608,3.32437223 27.89,3.22 C27.8794954,3.11147662 27.920165,3.00425662 28,2.93 C28.078336,2.8479244 28.1865458,2.8010335 28.3,2.8 L29.48,2.65 C29.5853979,2.62993542 29.6943662,2.65536136 29.78,2.72 Z" class="Shape" fill-rule="nonzero"></path>
            <path d="M32.62,5.15 C32.339386,5.07910991 32.0769636,4.94960275 31.85,4.77 C31.7868771,4.72642232 31.7353789,4.66805771 31.7,4.6 C31.6829678,4.52765563 31.6829678,4.45234437 31.7,4.38 C31.697778,4.26974894 31.7370356,4.16268269 31.81,4.08 C31.8623522,4.03243867 31.9293947,4.00421025 32,4 L32.15,4 L32.33,4.09 C32.514192,4.21643854 32.7164914,4.31421659 32.93,4.38 C33.1484009,4.44061946 33.3734165,4.47420387 33.6,4.48 C33.844937,4.49781354 34.0901592,4.44945986 34.31,4.34 C34.4701598,4.25274146 34.5670288,4.08225205 34.56,3.9 C34.5573108,3.75154366 34.4726098,3.61679196 34.34,3.55 C34.0877747,3.42396395 33.81813,3.33632942 33.54,3.29 C33.1950858,3.21411459 32.8596882,3.1000794 32.54,2.95 C32.3158542,2.8338359 32.1287725,2.65714761 32,2.44 C31.8820679,2.23356046 31.8264928,1.99736643 31.84,1.76 C31.8381237,1.48924787 31.9183117,1.22427864 32.07,1 C32.2562849,0.760062931 32.5055478,0.576577765 32.79,0.47 C33.1070191,0.339573562 33.447237,0.274932171 33.79,0.28 C34.3756635,0.269843971 34.9484155,0.452562405 35.42,0.8 C35.4787291,0.849560688 35.5264206,0.910878414 35.56,0.98 C35.576192,1.04906364 35.576192,1.12093636 35.56,1.19 C35.5565255,1.30399497 35.5141842,1.41337653 35.44,1.5 C35.3802861,1.57852181 35.2885752,1.6262115 35.19,1.63 C35.1435045,1.63565284 35.0964955,1.63565284 35.05,1.63 C34.9861327,1.60845392 34.9255572,1.57816618 34.87,1.54 C34.7073847,1.42800162 34.5330162,1.33411088 34.35,1.26 C34.1553723,1.18631216 33.947968,1.15231145 33.74,1.16 C33.5032785,1.13852381 33.265718,1.19092686 33.06,1.31 C32.9072799,1.40933657 32.8136601,1.57785231 32.81,1.76 C32.839007,1.86202746 32.9073505,1.94835615 33,2 C33.0853388,2.0911154 33.1918088,2.15980571 33.31,2.2 C33.512058,2.27486548 33.7192649,2.33502233 33.93,2.38 C34.4176238,2.46910747 34.8810139,2.65991514 35.29,2.94 C35.5606016,3.1623559 35.7091416,3.50028447 35.69,3.85 C35.6892849,4.13116476 35.5981268,4.40463911 35.43,4.63 C35.2489531,4.86870628 35.0022096,5.04941983 34.72,5.15 C34.4009916,5.27151779 34.0612432,5.32927502 33.72,5.32 C33.3467864,5.32006059 32.9757833,5.26272374 32.62,5.15 Z" class="Shape" fill-rule="nonzero"></path>
            <path d="M44.15,1.53 C44.2477384,1.49992307 44.3522616,1.49992307 44.45,1.53 C44.5744161,1.55078358 44.6876306,1.61446675 44.77,1.71 C44.8521754,1.8105583 44.8818519,1.94410229 44.85,2.07 C44.8368672,2.14757052 44.809761,2.22211248 44.77,2.29 L42.67,5.96 C42.6082766,6.05854894 42.5174059,6.13543947 42.41,6.18 C42.2918296,6.20963422 42.1681704,6.20963422 42.05,6.18 C41.9312065,6.16155536 41.8201704,6.10950716 41.73,6.03 C41.6402209,5.95277064 41.5801169,5.84670461 41.56,5.73 L41,2.66 L39.45,5.37 C39.3882766,5.46854894 39.2974059,5.54543947 39.19,5.59 C39.0752724,5.62008115 38.9547276,5.62008115 38.84,5.59 C38.7212065,5.57155536 38.6101704,5.51950716 38.52,5.44 C38.4321884,5.36532306 38.372265,5.26310077 38.35,5.15 L37.63,1 C37.6199379,0.923663482 37.6199379,0.846336518 37.63,0.77 C37.6489734,0.640014288 37.7263229,0.52583162 37.84,0.46 C37.9543504,0.392322407 38.08904,0.367511151 38.22,0.39 C38.3245702,0.409620007 38.4215619,0.458115832 38.5,0.53 C38.5818641,0.607930225 38.6377313,0.709189507 38.66,0.82 L39.19,4.04 L40.81,1.2 C40.8694079,1.11191633 40.9526474,1.04255004 41.05,1 C41.1478284,0.970527429 41.2521716,0.970527429 41.35,1 C41.5701282,1.04094793 41.7393293,1.21820622 41.77,1.44 L42.29,4.7 L43.92,1.79 C43.9623708,1.67817066 44.0441748,1.5856966 44.15,1.53 Z" class="Shape" fill-rule="nonzero"></path>
            <path d="M49.57,8 C49.5287999,8.1191182 49.4374116,8.21416205 49.32,8.26 C49.1938972,8.30501716 49.0561028,8.30501716 48.93,8.26 C48.8482979,8.22883041 48.7759827,8.1771767 48.72,8.11 C48.6603802,8.0320451 48.6255426,7.9379835 48.62,7.84 L48.54,6.94 L46.31,6.16 L45.69,6.82 C45.6282146,6.89451073 45.5440504,6.94711331 45.45,6.97 C45.3651366,6.99500236 45.2748634,6.99500236 45.19,6.97 C45.0618253,6.92788778 44.9545353,6.83847949 44.89,6.72 C44.8313025,6.60717791 44.8313025,6.47282209 44.89,6.36 C44.9150651,6.28838177 44.9561014,6.22340757 45.01,6.17 L48.05,3 C48.1305916,2.91632039 48.2356112,2.8603099 48.35,2.84 C48.4619175,2.81466578 48.5780825,2.81466578 48.69,2.84 C48.8017362,2.88162506 48.9013854,2.95034867 48.98,3.04 C49.0525853,3.13334456 49.1007081,3.24333957 49.12,3.36 L49.59,7.71 C49.6085087,7.80677059 49.6016179,7.90668641 49.57,8 Z M46.93,5.52 L48.46,6.05 L48.3,4.05 L46.93,5.52 Z" class="Shape" fill-rule="nonzero"></path>
            <path d="M55.52,5.85 C55.6399493,5.90780737 55.7304968,6.01284247 55.77,6.14 C55.8247637,6.26074746 55.8247637,6.39925254 55.77,6.52 C55.7126649,6.62832597 55.6160635,6.71061604 55.5,6.75 L53.33,7.7 L52.52,9.33 C52.4701134,9.47141756 52.3544257,9.57964153 52.21,9.62 C52.0786478,9.67390024 51.9313522,9.67390024 51.8,9.62 C51.6682969,9.56109125 51.5644117,9.4536238 51.51,9.32 C51.4466216,9.18367275 51.4466216,9.02632725 51.51,8.89 L52.32,7.26 L51.77,4.96 C51.7249403,4.84768414 51.7249403,4.72231586 51.77,4.61 C51.8280106,4.49229891 51.9335267,4.40497524 52.06,4.37 C52.1817307,4.31999099 52.3182693,4.31999099 52.44,4.37 C52.5641743,4.43987415 52.6517842,4.56033783 52.68,4.7 L53.15,6.7 L55.07,5.84 C55.2119471,5.76662032 55.3814527,5.77038711 55.52,5.85 Z" class="Shape" fill-rule="nonzero"></path>
            <path d="M26.69,10.58 C27.9134264,10.619627 29.1353666,10.4643528 30.31,10.12 C30.91,9.97 31.51,9.81 32.12,9.69 C32.417059,9.63039725 32.7177022,9.59031148 33.02,9.57 C33.32,9.57 33.62,9.45 33.93,10.25 C34.0100601,10.4901704 34.0100601,10.7498296 33.93,10.99 C33.62,11.79 33.32,11.71 33.02,11.67 C32.72,11.63 32.42,11.61 32.12,11.56 C31.51,11.44 30.91,11.27 30.31,11.12 C29.1358497,10.7740626 27.9131124,10.6220649 26.69,10.67 C26.69,10.67 26.69,10.67 26.69,10.62 C26.69,10.57 26.69,10.62 26.69,10.62 L26.69,10.58 Z" class="Shape" fill-rule="nonzero"></path>
            <path d="M39.94,10.67 C38.7168573,10.6213454 37.4940036,10.7733577 36.32,11.12 C35.71,11.27 35.11,11.44 34.51,11.56 C34.208732,11.6120997 33.9050048,11.648814 33.6,11.67 C33.3,11.67 33,11.79 32.7,10.99 C32.6199399,10.7498296 32.6199399,10.4901704 32.7,10.25 C33,9.45 33.3,9.54 33.6,9.57 C33.9056722,9.58963916 34.2096859,9.62972888 34.51,9.69 C35.11,9.81 35.71,9.97 36.32,10.12 C37.4945286,10.4648545 38.7165496,10.6201389 39.94,10.58 C39.94,10.58 39.94,10.58 39.94,10.58 C39.94,10.58 39.94,10.63 39.94,10.63 L39.94,10.67 Z" class="Shape" fill-rule="nonzero"></path>
            <path d="M3.85,28.56 C4.07292332,28.6162171 4.28555084,28.7073432 4.48,28.83 C4.70539494,28.9545146 4.96813299,28.9935702 5.22,28.94 C5.4611889,28.8152331 5.61748394,28.5712604 5.63,28.3 C5.65792369,27.8479846 5.55738473,27.3972927 5.34,27 C5.04241038,26.4113894 4.47375308,26.0073435 3.82,25.92 C3.48706277,25.9165668 3.1603654,26.0104054 2.88,26.19 C2.35630629,26.6079665 2.00118881,27.2010127 1.88,27.86 C1.79,28.34 1.88,29.02 2.22,29.17 C2.33472765,29.2000812 2.45527235,29.2000812 2.57,29.17 C3,29 3.31,28.51 3.85,28.56 Z" class="Shape"></path>
            <path d="M6.47,26.41 C6.66735875,26.1581431 6.7539764,25.836936 6.71,25.52 C6.66843561,25.2339226 6.46409008,24.9982405 6.18678993,24.9165552 C5.90948978,24.8348699 5.61001143,24.9221388 5.42,25.14 C5.13694717,25.4888323 5.08970775,25.9730364 5.3,26.37 C5.39981871,26.5886876 5.63217878,26.7150589 5.87,26.68 C6.09919184,26.67894 6.31720625,26.5808335 6.47,26.41 Z" class="Shape"></path>
            <path d="M2,26.62 C2.1297553,26.3577037 2.14416274,26.0531578 2.03974891,25.7797834 C1.93533508,25.506409 1.72157401,25.2890108 1.45,25.18 C1.20197728,25.1552653 0.957069582,25.2505547 0.79098456,25.4364117 C0.624899539,25.6222688 0.557640853,25.8763084 0.61,26.12 C0.657330937,26.5864728 1.07344605,26.9265238 1.54,26.88 C1.72010482,26.8528954 1.88388783,26.7603224 2,26.62 Z" class="Shape"></path>
            <path d="M4.93,25.3 C5.17564977,24.860501 5.20155032,24.3313899 5,23.87 C4.79544035,23.557771 4.38187355,23.4609787 4.06,23.65 C3.80870657,23.8674939 3.65701872,24.1780928 3.64,24.51 C3.64,25.18 3.93,25.71 4.46,25.6 C4.6510212,25.5682753 4.82079755,25.4599074 4.93,25.3 Z" class="Shape"></path>
            <path d="M3.1,24 C2.91808634,23.7177952 2.56141959,23.604501 2.25,23.73 C1.91405132,23.9649265 1.75551019,24.3810969 1.85,24.78 C1.89750364,25.2850453 2.34484661,25.65634 2.85,25.61 C3.48,25.49 3.45,24.5 3.1,24 Z" class="Shape"></path>
            <path d="M2.54,29.12 C2.42527235,29.1500812 2.30472765,29.1500812 2.19,29.12 C1.88,28.97 1.76,28.29 1.85,27.81 C1.97118881,27.1510127 2.32630629,26.5579665 2.85,26.14 C3.1303654,25.9604054 3.45706277,25.8665668 3.79,25.87 C4.46537305,25.9581667 5.04945049,26.383978 5.34,27 C5.56682419,27.411876 5.6676651,27.8813078 5.63,28.35 C5.61748394,28.6212604 5.4611889,28.8652331 5.22,28.99 C4.96813299,29.0435702 4.70539494,29.0045146 4.48,28.88 C4.28555084,28.7573432 4.07292332,28.6662171 3.85,28.61 C3.31,28.51 3,29 2.54,29.12 Z" class="Shape"></path>
            <path d="M5.87,26.68 C5.63217878,26.7150589 5.39981871,26.5886876 5.3,26.37 C5.08970775,25.9730364 5.13694717,25.4888323 5.42,25.14 C5.61001143,24.9221388 5.90948978,24.8348699 6.18678993,24.9165552 C6.46409008,24.9982405 6.66843561,25.2339226 6.71,25.52 C6.7539764,25.836936 6.66735875,26.1581431 6.47,26.41 C6.31720625,26.5808335 6.09919184,26.67894 5.87,26.68 Z" class="Shape"></path>
            <path d="M1.49,26.88 C1.02344605,26.9265238 0.607330937,26.5864728 0.56,26.12 C0.507640853,25.8763084 0.574899539,25.6222688 0.74098456,25.4364117 C0.907069582,25.2505547 1.15197728,25.1552653 1.4,25.18 C1.68052691,25.2788153 1.9059862,25.4919653 2.02037926,25.7665086 C2.13477232,26.041052 2.12736605,26.3512293 2,26.62 C1.87176293,26.7715744 1.68799561,26.8652597 1.49,26.88 Z" class="Shape"></path>
            <path d="M4.47,25.6 C3.94,25.71 3.62,25.18 3.65,24.51 C3.66701872,24.1780928 3.81870657,23.8674939 4.07,23.65 C4.39187355,23.4609787 4.80544035,23.557771 5.01,23.87 C5.20849288,24.3329373 5.17888987,24.8620912 4.93,25.3 C4.82311431,25.4576537 4.65736644,25.5657501 4.47,25.6 Z" class="Shape"></path>
            <path d="M2.86,25.63 C2.35484661,25.67634 1.90750364,25.3050453 1.86,24.8 C1.76551019,24.4010969 1.92405132,23.9849265 2.26,23.75 C2.56398184,23.6260568 2.91326054,23.7300088 3.1,24 C3.45,24.5 3.48,25.49 2.86,25.63 Z" class="Shape"></path>
            <path d="M62.6,28.56 C62.3770767,28.6162171 62.1644492,28.7073432 61.97,28.83 C61.7446051,28.9545146 61.481867,28.9935702 61.23,28.94 C60.9888111,28.8152331 60.8325161,28.5712604 60.82,28.3 C60.7920763,27.8479846 60.8926153,27.3972927 61.11,27 C61.4095276,26.40871 61.9825455,26.0042268 62.64,25.92 C62.9697817,25.9167658 63.2932215,26.0106677 63.57,26.19 C64.0936937,26.6079665 64.4488112,27.2010127 64.57,27.86 C64.66,28.34 64.57,29.02 64.23,29.17 C64.1152724,29.2000812 63.9947276,29.2000812 63.88,29.17 C63.45,29 63.14,28.51 62.6,28.56 Z" class="Shape"></path>
            <path d="M60,26.41 C59.80669,26.1561343 59.7205334,25.8366369 59.76,25.52 C59.8060564,25.234362 60.0123052,25.0006883 60.2900114,24.9195126 C60.5677176,24.838337 60.8673511,24.9241374 61.06,25.14 C61.3332532,25.4927898 61.3799125,25.9710477 61.18,26.37 C61.0740913,26.5879288 60.8400394,26.7130255 60.6,26.68 C60.3708082,26.67894 60.1527937,26.5808335 60,26.41 Z" class="Shape"></path>
            <path d="M64.5,26.62 C64.3702447,26.3577037 64.3558373,26.0531578 64.4602511,25.7797834 C64.5646649,25.506409 64.778426,25.2890108 65.05,25.18 C65.2992306,25.1505951 65.5471543,25.244492 65.7143762,25.4316213 C65.8815981,25.6187506 65.9471352,25.8756312 65.89,26.12 C65.8426691,26.5864728 65.4265539,26.9265238 64.96,26.88 C64.7807992,26.8503038 64.6178662,26.7582112 64.5,26.62 Z" class="Shape"></path>
            <path d="M61.52,25.3 C61.2711101,24.8620912 61.2415071,24.3329373 61.44,23.87 C61.6445596,23.557771 62.0581264,23.4609787 62.38,23.65 C62.6383043,23.8620261 62.7916041,24.1759257 62.8,24.51 C62.8,25.18 62.51,25.71 61.98,25.6 C61.7926336,25.5657501 61.6268857,25.4576537 61.52,25.3 Z" class="Shape"></path>
            <path d="M63.35,24 C63.5354524,23.7162366 63.8956359,23.6031557 64.21,23.73 C64.5422089,23.9675286 64.6966008,24.3831992 64.6,24.78 C64.5524964,25.2850453 64.1051534,25.65634 63.6,25.61 C63,25.49 63,24.5 63.35,24 Z" class="Shape"></path>
            <path d="M63.91,29.12 C64.0247276,29.1500812 64.1452724,29.1500812 64.26,29.12 C64.57,28.97 64.69,28.29 64.6,27.81 C64.4788112,27.1510127 64.1236937,26.5579665 63.6,26.14 C63.3232215,25.9606677 62.9997817,25.8667658 62.67,25.87 C61.9909126,25.9549492 61.4024127,26.3812344 61.11,27 C60.8831758,27.411876 60.7823349,27.8813078 60.82,28.35 C60.8325161,28.6212604 60.9888111,28.8652331 61.23,28.99 C61.481867,29.0435702 61.7446051,29.0045146 61.97,28.88 C62.1644492,28.7573432 62.3770767,28.6662171 62.6,28.61 C63.14,28.51 63.45,29 63.91,29.12 Z" class="Shape"></path>
            <path d="M60.58,26.68 C60.8200394,26.7130255 61.0540913,26.5879288 61.16,26.37 C61.3487518,25.9635168 61.2864623,25.4846667 61,25.14 C60.8073511,24.9241374 60.5077176,24.838337 60.2300114,24.9195126 C59.9523052,25.0006883 59.7460564,25.234362 59.7,25.52 C59.6605334,25.8366369 59.74669,26.1561343 59.94,26.41 C60.1019591,26.5915476 60.3369441,26.6906819 60.58,26.68 Z" class="Shape"></path>
            <path d="M65,26.88 C65.4665539,26.9265238 65.8826691,26.5864728 65.93,26.12 C65.9871352,25.8756312 65.9215981,25.6187506 65.7543762,25.4316213 C65.5871543,25.244492 65.3392306,25.1505951 65.09,25.18 C64.818426,25.2890108 64.6046649,25.506409 64.5002511,25.7797834 C64.3958373,26.0531578 64.4102447,26.3577037 64.54,26.62 C64.6578662,26.7582112 64.8207992,26.8503038 65,26.88 Z" class="Shape"></path>
            <path d="M62,25.6 C62.53,25.71 62.85,25.18 62.82,24.51 C62.8116041,24.1759257 62.6583043,23.8620261 62.4,23.65 C62.0781264,23.4609787 61.6645596,23.557771 61.46,23.87 C61.2615071,24.3329373 61.2911101,24.8620912 61.54,25.3 C61.6468857,25.4576537 61.8126336,25.5657501 62,25.6 Z" class="Shape"></path>
            <path d="M63.59,25.63 C64.0951534,25.67634 64.5424964,25.3050453 64.59,24.8 C64.6866008,24.4031992 64.5322089,23.9875286 64.2,23.75 C63.8856359,23.6231557 63.5254524,23.7362366 63.34,24.02 C63,24.5 63,25.49 63.59,25.63 Z" class="Shape"></path>
        </g>
</svg>